{
  "token": "82C36AF3-B220-459B-9AAD-88A81883E970",
  "message": {
    "constructType": "2",
    "rulename": "Off-market scenario",
    "description": "This is description for the rule",
    "focalEntity": "Transaction",
    "comment": "This is a comment",
    "frequency": "daily",
    "inclusionlist": [],
    "exclusionlist": [],
    "lookback": {
      "type": "Year",
      "value": "2"
    },
    "clientId": 13,
    "condition": {
      "conditionId": 1,
      "type": "operator",
      "value": {
        "operator": "top",
        "filters": [],
        "time": {
          "type": "Day",
          "value": "0"
        },
        "offset": {
          "type": "Day",
          "value": "0"
        }
      },
      "children": [
        {
          "conditionId": 2,
          "type": "logical",
          "value": {
            "logical": "UNION",
            "filters": [],
            "time": {
              "type": "Day",
              "value": "0"
            },
            "offset": {
              "type": "Day",
              "value": "0"
            }
          },
          "children": [
            {
              "conditionId": 4,
              "type": "aggregation",
              "value": {
                "aggregation": "Divide",
                "filters": [],
                "time": {
                  "type": "Day",
                  "value": "0"
                },
                "offset": {
                  "type": "Day",
                  "value": "0"
                }
              },
              "children": [
                {
                  "conditionId": 6,
                  "type": "aggregation",
                  "value": {
                    "aggregation": "Difference",
                    "filters": [],
                    "time": {
                      "type": "Day",
                      "value": "0"
                    },
                    "offset": {
                      "type": "Day",
                      "value": "0"
                    }
                  },
                  "children": [
                    {
                      "conditionId": 10,
                      "type": "attribute",
                      "value": {
                        "table": "Settlement",
                        "attribute": "EY_EXECUTED_PRICE",
                        "filters": [
                          {
                            "type": "operator",
                            "value": {
                              "operator": "="
                            },
                            "children": [
                              {
                                "type": "attribute",
                                "value": {
                                  "table": "Settlement",
                                  "attribute": "off_market_flag"
                                }
                              },
                              {
                                "type": "data",
                                "value": {
                                  "data": "H"
                                }
                              }
                            ]
                          }
                        ],
                        "time": {
                          "type": "Day",
                          "value": "0"
                        },
                        "offset": {
                          "type": "Day",
                          "value": "0"
                        }
                      }
                    },
                    {
                      "conditionId": 11,
                      "type": "attribute",
                      "value": {
                        "table": "Market_Data",
                        "attribute": "daily_max_security_price",
                        "filters": [],
                        "time": {
                          "type": "Day",
                          "value": "0"
                        },
                        "offset": {
                          "type": "Day",
                          "value": "0"
                        }
                      }
                    }
                  ]
                },
                {
                  "conditionId": 7,
                  "type": "attribute",
                  "value": {
                    "table": "Market_Data",
                    "attribute": "daily_max_security_price",
                    "filters": [],
                    "time": {
                      "type": "Day",
                      "value": "0"
                    },
                    "offset": {
                      "type": "Day",
                      "value": "0"
                    }
                  }
                }
              ]
            },
            {
              "conditionId": 5,
              "type": "aggregation",
              "value": {
                "aggregation": "Divide",
                "filters": [],
                "time": {
                  "type": "Day",
                  "value": "0"
                },
                "offset": {
                  "type": "Day",
                  "value": "0"
                }
              },
              "children": [
                {
                  "conditionId": 8,
                  "type": "aggregation",
                  "value": {
                    "aggregation": "Difference",
                    "filters": [],
                    "time": {
                      "type": "Day",
                      "value": "0"
                    },
                    "offset": {
                      "type": "Day",
                      "value": "0"
                    }
                  },
                  "children": [
                    {
                      "conditionId": 12,
                      "type": "attribute",
                      "value": {
                        "table": "Market_Data",
                        "attribute": "daily_min_security_price"
                      }
                    },
                    {
                      "conditionId": 13,
                      "type": "attribute",
                      "value": {
                        "table": "Settlement",
                        "attribute": "EY_EXECUTED_PRICE",
                        "filters": [
                          {
                            "type": "operator",
                            "value": {
                              "operator": "="
                            },
                            "children": [
                              {
                                "type": "attribute",
                                "value": {
                                  "table": "Settlement",
                                  "attribute": "off_market_flag"
                                }
                              },
                              {
                                "type": "data",
                                "value": {
                                  "data": "L"
                                }
                              }
                            ]
                          }
                        ]
                      }
                    }
                  ]
                },
                {
                  "conditionId": 9,
                  "type": "attribute",
                  "value": {
                    "table": "Market_Data",
                    "attribute": "daily_min_security_price"
                  }
                }
              ]
            }
          ]
        },
        {
          "conditionId": 3,
          "type": "thresholdLabel",
          "value": {
            "thresholdLabel": "pValue",
            "data": "3",
            "aggregation": "Percentile"
          }
        }
      ]
    }
  }
}
